<?xml version="1.0" encoding="utf-8"?>
<!DOCTYPE eagle SYSTEM "eagle.dtd">
<eagle version="7.7.0">
<drawing>
<settings>
<setting alwaysvectorfont="yes"/>
<setting verticaltext="up"/>
</settings>
<grid distance="0.1" unitdist="inch" unit="inch" style="lines" multiple="1" display="no" altdistance="0.01" altunitdist="inch" altunit="inch"/>
<layers>
<layer number="1" name="Top" color="4" fill="1" visible="no" active="no"/>
<layer number="2" name="Route2" color="1" fill="3" visible="no" active="no"/>
<layer number="3" name="Route3" color="4" fill="3" visible="no" active="no"/>
<layer number="4" name="Route4" color="1" fill="4" visible="no" active="no"/>
<layer number="5" name="Route5" color="4" fill="4" visible="no" active="no"/>
<layer number="6" name="Route6" color="1" fill="8" visible="no" active="no"/>
<layer number="7" name="Route7" color="4" fill="8" visible="no" active="no"/>
<layer number="8" name="Route8" color="1" fill="2" visible="no" active="no"/>
<layer number="9" name="Route9" color="4" fill="2" visible="no" active="no"/>
<layer number="10" name="Route10" color="1" fill="7" visible="no" active="no"/>
<layer number="11" name="Route11" color="4" fill="7" visible="no" active="no"/>
<layer number="12" name="Route12" color="1" fill="5" visible="no" active="no"/>
<layer number="13" name="Route13" color="4" fill="5" visible="no" active="no"/>
<layer number="14" name="Route14" color="1" fill="6" visible="no" active="no"/>
<layer number="15" name="Route15" color="4" fill="6" visible="no" active="no"/>
<layer number="16" name="Bottom" color="1" fill="1" visible="no" active="no"/>
<layer number="17" name="Pads" color="2" fill="1" visible="no" active="no"/>
<layer number="18" name="Vias" color="2" fill="1" visible="no" active="no"/>
<layer number="19" name="Unrouted" color="6" fill="1" visible="no" active="no"/>
<layer number="20" name="Dimension" color="15" fill="1" visible="no" active="no"/>
<layer number="21" name="tPlace" color="7" fill="1" visible="no" active="no"/>
<layer number="22" name="bPlace" color="7" fill="1" visible="no" active="no"/>
<layer number="23" name="tOrigins" color="15" fill="1" visible="no" active="no"/>
<layer number="24" name="bOrigins" color="15" fill="1" visible="no" active="no"/>
<layer number="25" name="tNames" color="7" fill="1" visible="no" active="no"/>
<layer number="26" name="bNames" color="7" fill="1" visible="no" active="no"/>
<layer number="27" name="tValues" color="7" fill="1" visible="no" active="no"/>
<layer number="28" name="bValues" color="7" fill="1" visible="no" active="no"/>
<layer number="29" name="tStop" color="7" fill="3" visible="no" active="no"/>
<layer number="30" name="bStop" color="7" fill="6" visible="no" active="no"/>
<layer number="31" name="tCream" color="7" fill="4" visible="no" active="no"/>
<layer number="32" name="bCream" color="7" fill="5" visible="no" active="no"/>
<layer number="33" name="tFinish" color="6" fill="3" visible="no" active="no"/>
<layer number="34" name="bFinish" color="6" fill="6" visible="no" active="no"/>
<layer number="35" name="tGlue" color="7" fill="4" visible="no" active="no"/>
<layer number="36" name="bGlue" color="7" fill="5" visible="no" active="no"/>
<layer number="37" name="tTest" color="7" fill="1" visible="no" active="no"/>
<layer number="38" name="bTest" color="7" fill="1" visible="no" active="no"/>
<layer number="39" name="tKeepout" color="4" fill="11" visible="no" active="no"/>
<layer number="40" name="bKeepout" color="1" fill="11" visible="no" active="no"/>
<layer number="41" name="tRestrict" color="4" fill="10" visible="no" active="no"/>
<layer number="42" name="bRestrict" color="1" fill="10" visible="no" active="no"/>
<layer number="43" name="vRestrict" color="2" fill="10" visible="no" active="no"/>
<layer number="44" name="Drills" color="7" fill="1" visible="no" active="no"/>
<layer number="45" name="Holes" color="7" fill="1" visible="no" active="no"/>
<layer number="46" name="Milling" color="3" fill="1" visible="no" active="no"/>
<layer number="47" name="Measures" color="7" fill="1" visible="no" active="no"/>
<layer number="48" name="Document" color="7" fill="1" visible="no" active="no"/>
<layer number="49" name="Reference" color="7" fill="1" visible="no" active="no"/>
<layer number="50" name="logo" color="7" fill="1" visible="no" active="no"/>
<layer number="51" name="tDocu" color="7" fill="1" visible="no" active="no"/>
<layer number="52" name="bDocu" color="7" fill="1" visible="no" active="no"/>
<layer number="53" name="tGND_GNDA" color="7" fill="1" visible="no" active="no"/>
<layer number="54" name="bGND_GNDA" color="7" fill="1" visible="no" active="no"/>
<layer number="56" name="wert" color="7" fill="1" visible="no" active="no"/>
<layer number="57" name="tCAD" color="7" fill="1" visible="no" active="no"/>
<layer number="59" name="tCarbon" color="7" fill="1" visible="no" active="no"/>
<layer number="60" name="bCarbon" color="7" fill="1" visible="no" active="no"/>
<layer number="90" name="Modules" color="5" fill="1" visible="yes" active="yes"/>
<layer number="91" name="Nets" color="2" fill="1" visible="yes" active="yes"/>
<layer number="92" name="Busses" color="1" fill="1" visible="yes" active="yes"/>
<layer number="93" name="Pins" color="2" fill="1" visible="no" active="yes"/>
<layer number="94" name="Symbols" color="4" fill="1" visible="yes" active="yes"/>
<layer number="95" name="Names" color="7" fill="1" visible="yes" active="yes"/>
<layer number="96" name="Values" color="7" fill="1" visible="yes" active="yes"/>
<layer number="97" name="Info" color="7" fill="1" visible="yes" active="yes"/>
<layer number="98" name="Guide" color="6" fill="1" visible="yes" active="yes"/>
<layer number="99" name="SpiceOrder" color="5" fill="1" visible="yes" active="yes"/>
<layer number="100" name="Muster" color="7" fill="1" visible="yes" active="yes"/>
<layer number="101" name="T_PLACEMENT" color="7" fill="1" visible="yes" active="yes"/>
<layer number="102" name="Vert" color="2" fill="9" visible="yes" active="yes"/>
<layer number="103" name="Cyan" color="3" fill="9" visible="yes" active="yes"/>
<layer number="104" name="Rouge" color="4" fill="9" visible="yes" active="yes"/>
<layer number="105" name="Violet" color="5" fill="9" visible="yes" active="yes"/>
<layer number="106" name="Jaune" color="6" fill="9" visible="yes" active="yes"/>
<layer number="107" name="Gris" color="7" fill="9" visible="yes" active="yes"/>
<layer number="108" name="fp8" color="7" fill="1" visible="yes" active="yes"/>
<layer number="109" name="fp9" color="7" fill="1" visible="yes" active="yes"/>
<layer number="110" name="fp0" color="7" fill="1" visible="yes" active="yes"/>
<layer number="111" name="TITRE_1" color="7" fill="1" visible="yes" active="yes"/>
<layer number="112" name="LED_ROUGE" color="12" fill="1" visible="yes" active="yes"/>
<layer number="113" name="LED_VERTE" color="2" fill="1" visible="yes" active="yes"/>
<layer number="114" name="LED_JAUNE" color="14" fill="1" visible="yes" active="yes"/>
<layer number="115" name="FRNTMAAT2" color="7" fill="1" visible="yes" active="yes"/>
<layer number="116" name="Patch_BOT" color="7" fill="1" visible="yes" active="yes"/>
<layer number="117" name="BACKMAAT1" color="7" fill="1" visible="yes" active="yes"/>
<layer number="118" name="Rect_Pads" color="7" fill="1" visible="yes" active="yes"/>
<layer number="119" name="KAP_TEKEN" color="7" fill="1" visible="yes" active="yes"/>
<layer number="120" name="KAP_MAAT1" color="7" fill="1" visible="yes" active="yes"/>
<layer number="121" name="_tplace" color="7" fill="1" visible="yes" active="yes"/>
<layer number="122" name="_bplace" color="7" fill="1" visible="yes" active="yes"/>
<layer number="123" name="tTestmark" color="7" fill="1" visible="yes" active="yes"/>
<layer number="124" name="bTestmark" color="7" fill="1" visible="yes" active="yes"/>
<layer number="125" name="_tNames" color="7" fill="1" visible="yes" active="yes"/>
<layer number="126" name="_bNames" color="7" fill="1" visible="yes" active="yes"/>
<layer number="127" name="_tValues" color="7" fill="1" visible="yes" active="yes"/>
<layer number="128" name="_bValues" color="7" fill="1" visible="yes" active="yes"/>
<layer number="129" name="top_silk" color="7" fill="1" visible="yes" active="yes"/>
<layer number="130" name="SMDSTROOK" color="7" fill="1" visible="yes" active="yes"/>
<layer number="131" name="tAdjust" color="7" fill="1" visible="yes" active="yes"/>
<layer number="132" name="bAdjust" color="7" fill="1" visible="yes" active="yes"/>
<layer number="133" name="bottom_silk" color="7" fill="1" visible="yes" active="yes"/>
<layer number="134" name="silk_top" color="7" fill="1" visible="yes" active="yes"/>
<layer number="135" name="silk_bottom" color="7" fill="1" visible="yes" active="yes"/>
<layer number="136" name="silktop" color="7" fill="1" visible="yes" active="yes"/>
<layer number="137" name="silkbottom" color="7" fill="1" visible="yes" active="yes"/>
<layer number="139" name="_tKeepout" color="7" fill="1" visible="yes" active="yes"/>
<layer number="144" name="Drill_legend" color="7" fill="1" visible="yes" active="yes"/>
<layer number="145" name="DrillLegend_01-16" color="7" fill="1" visible="yes" active="yes"/>
<layer number="146" name="DrillLegend_01-20" color="7" fill="1" visible="yes" active="yes"/>
<layer number="150" name="tPlaceCms" color="7" fill="1" visible="yes" active="yes"/>
<layer number="151" name="tNamesCms" color="7" fill="1" visible="yes" active="yes"/>
<layer number="152" name="_bDocu" color="7" fill="1" visible="yes" active="yes"/>
<layer number="153" name="FabDoc1" color="7" fill="1" visible="yes" active="yes"/>
<layer number="154" name="FabDoc2" color="7" fill="1" visible="yes" active="yes"/>
<layer number="155" name="FabDoc3" color="7" fill="1" visible="yes" active="yes"/>
<layer number="161" name="tGeom" color="7" fill="1" visible="yes" active="yes"/>
<layer number="162" name="bGeom" color="7" fill="1" visible="yes" active="yes"/>
<layer number="190" name="Class0" color="6" fill="1" visible="yes" active="yes"/>
<layer number="191" name="Class1" color="11" fill="1" visible="yes" active="yes"/>
<layer number="192" name="Class2" color="12" fill="1" visible="yes" active="yes"/>
<layer number="193" name="Class3" color="7" fill="1" visible="yes" active="yes"/>
<layer number="194" name="L$194" color="7" fill="1" visible="yes" active="yes"/>
<layer number="195" name="Class5" color="10" fill="1" visible="yes" active="yes"/>
<layer number="196" name="Class6" color="1" fill="1" visible="yes" active="yes"/>
<layer number="197" name="Class7" color="5" fill="1" visible="yes" active="yes"/>
<layer number="199" name="Contour" color="7" fill="1" visible="yes" active="yes"/>
<layer number="200" name="Percage" color="7" fill="1" visible="yes" active="yes"/>
<layer number="201" name="TEXTES" color="7" fill="1" visible="yes" active="yes"/>
<layer number="202" name="202bmp" color="7" fill="1" visible="yes" active="yes"/>
<layer number="203" name="203bmp" color="7" fill="1" visible="yes" active="yes"/>
<layer number="204" name="204bmp" color="7" fill="1" visible="yes" active="yes"/>
<layer number="205" name="205bmp" color="7" fill="1" visible="yes" active="yes"/>
<layer number="206" name="206bmp" color="7" fill="1" visible="yes" active="yes"/>
<layer number="207" name="207bmp" color="7" fill="1" visible="yes" active="yes"/>
<layer number="208" name="208bmp" color="7" fill="1" visible="yes" active="yes"/>
<layer number="209" name="Carte_Mere" color="12" fill="1" visible="yes" active="yes"/>
<layer number="210" name="Mes_comp" color="7" fill="1" visible="yes" active="yes"/>
<layer number="211" name="Mires" color="7" fill="1" visible="yes" active="yes"/>
<layer number="212" name="Coins" color="7" fill="1" visible="yes" active="yes"/>
<layer number="213" name="tCartouch" color="7" fill="1" visible="yes" active="yes"/>
<layer number="214" name="bCartouch" color="7" fill="1" visible="yes" active="yes"/>
<layer number="215" name="txTop1" color="7" fill="1" visible="yes" active="yes"/>
<layer number="216" name="txBot16" color="7" fill="1" visible="yes" active="yes"/>
<layer number="217" name="txGnd2" color="7" fill="1" visible="yes" active="yes"/>
<layer number="218" name="txVcc15" color="7" fill="1" visible="yes" active="yes"/>
<layer number="219" name="txInner4" color="37" fill="1" visible="yes" active="yes"/>
<layer number="220" name="txInner5" color="33" fill="1" visible="yes" active="yes"/>
<layer number="221" name="ttxEquip" color="7" fill="1" visible="yes" active="yes"/>
<layer number="222" name="btxEquip" color="7" fill="1" visible="yes" active="yes"/>
<layer number="223" name="ttxSerig" color="7" fill="1" visible="yes" active="yes"/>
<layer number="224" name="btxSerig" color="7" fill="1" visible="yes" active="yes"/>
<layer number="225" name="ttxBrasur" color="7" fill="1" visible="yes" active="yes"/>
<layer number="226" name="btxBrasur" color="7" fill="1" visible="yes" active="yes"/>
<layer number="227" name="ttxEpargn" color="7" fill="1" visible="yes" active="yes"/>
<layer number="228" name="btxEpargn" color="7" fill="1" visible="yes" active="yes"/>
<layer number="229" name="Epargne" color="7" fill="1" visible="yes" active="yes"/>
<layer number="230" name="ttxColle" color="7" fill="1" visible="yes" active="yes"/>
<layer number="231" name="btxColle" color="7" fill="1" visible="yes" active="yes"/>
<layer number="232" name="ttxTest" color="7" fill="1" visible="yes" active="yes"/>
<layer number="233" name="btxTest" color="7" fill="1" visible="yes" active="yes"/>
<layer number="234" name="txPercage" color="7" fill="1" visible="yes" active="yes"/>
<layer number="235" name="txMeca" color="7" fill="1" visible="yes" active="yes"/>
<layer number="236" name="bxMeca" color="7" fill="1" visible="yes" active="yes"/>
<layer number="237" name="specfab" color="7" fill="1" visible="yes" active="yes"/>
<layer number="238" name="Manufacturer" color="4" fill="1" visible="yes" active="yes"/>
<layer number="240" name="txInner6" color="7" fill="1" visible="yes" active="yes"/>
<layer number="241" name="txInner7" color="7" fill="1" visible="yes" active="yes"/>
<layer number="242" name="txInner8" color="7" fill="1" visible="yes" active="yes"/>
<layer number="243" name="txInner9" color="7" fill="1" visible="yes" active="yes"/>
<layer number="248" name="Housing" color="7" fill="1" visible="yes" active="yes"/>
<layer number="249" name="Edge" color="7" fill="1" visible="yes" active="yes"/>
<layer number="250" name="Descript" color="7" fill="1" visible="yes" active="yes"/>
<layer number="251" name="SMDround" color="7" fill="1" visible="yes" active="yes"/>
<layer number="254" name="OrgLBR" color="7" fill="1" visible="yes" active="yes"/>
<layer number="255" name="Accent" color="7" fill="1" visible="yes" active="yes"/>
</layers>
<schematic xreflabel="%F%N/%S.%C%R" xrefpart="/%S.%C%R">
<libraries>
<library name="barettes">
<packages>
<package name="0JBS05DMD01A">
<wire x1="-1.27" y1="1.27" x2="1.27" y2="1.27" width="0.254" layer="21"/>
<wire x1="1.27" y1="1.27" x2="11.43" y2="1.27" width="0.254" layer="21"/>
<wire x1="11.43" y1="1.27" x2="11.43" y2="-1.27" width="0.254" layer="21"/>
<wire x1="11.43" y1="-1.27" x2="1.27" y2="-1.27" width="0.254" layer="21"/>
<wire x1="1.27" y1="-1.27" x2="-1.27" y2="-1.27" width="0.254" layer="21"/>
<wire x1="-1.27" y1="-1.27" x2="-1.27" y2="1.27" width="0.254" layer="21"/>
<wire x1="-1.27" y1="1.27" x2="1.27" y2="1.27" width="0" layer="27"/>
<wire x1="1.27" y1="1.27" x2="11.43" y2="1.27" width="0" layer="27"/>
<wire x1="11.43" y1="1.27" x2="11.43" y2="-1.27" width="0" layer="27"/>
<wire x1="-1.27" y1="-1.27" x2="-1.27" y2="1.27" width="0" layer="27"/>
<wire x1="11.43" y1="-1.27" x2="1.27" y2="-1.27" width="0" layer="27"/>
<wire x1="1.27" y1="-1.27" x2="-1.27" y2="-1.27" width="0" layer="27"/>
<wire x1="1.27" y1="-1.27" x2="1.27" y2="1.27" width="0.254" layer="21"/>
<wire x1="1.27" y1="-1.27" x2="1.27" y2="1.27" width="0" layer="27"/>
<pad name="1" x="0" y="0" drill="0.9" diameter="1.5748" shape="square"/>
<pad name="2" x="2.54" y="0" drill="0.9" diameter="1.5748"/>
<pad name="3" x="5.08" y="0" drill="0.9" diameter="1.5748"/>
<text x="-1.27" y="1.905" size="1.27" layer="27" font="vector" ratio="0">&gt;NAME</text>
<text x="-1.27" y="1.905" size="1.524" layer="25" font="vector" ratio="14">&gt;NAME</text>
<pad name="4" x="7.62" y="0" drill="0.9" diameter="1.5748"/>
<pad name="5" x="10.16" y="0" drill="0.9" diameter="1.5748"/>
</package>
</packages>
<symbols>
<symbol name="BAR05">
<wire x1="1.27" y1="-2.54" x2="-2.54" y2="-2.54" width="0.4064" layer="94"/>
<wire x1="-0.635" y1="5.715" x2="-0.635" y2="4.445" width="0.254" layer="94" curve="-180" cap="flat"/>
<wire x1="-0.635" y1="3.175" x2="-0.635" y2="1.905" width="0.254" layer="94" curve="-180" cap="flat"/>
<wire x1="-0.635" y1="0.635" x2="-0.635" y2="-0.635" width="0.254" layer="94" curve="-180"/>
<wire x1="-2.54" y1="12.7" x2="-2.54" y2="-2.54" width="0.4064" layer="94"/>
<wire x1="1.27" y1="-2.54" x2="1.27" y2="12.7" width="0.4064" layer="94"/>
<wire x1="-2.54" y1="12.7" x2="1.27" y2="12.7" width="0.4064" layer="94"/>
<wire x1="-0.635" y1="-0.635" x2="-0.635" y2="0.635" width="0.254" layer="94" curve="-180"/>
<wire x1="-0.635" y1="1.905" x2="-0.635" y2="3.175" width="0.254" layer="94" curve="-180" cap="flat"/>
<wire x1="-0.635" y1="4.445" x2="-0.635" y2="5.715" width="0.254" layer="94" curve="-180" cap="flat"/>
<wire x1="-1.27" y1="0.635" x2="0" y2="0.635" width="0.254" layer="94"/>
<wire x1="0" y1="0.635" x2="0" y2="-0.635" width="0.254" layer="94"/>
<wire x1="0" y1="-0.635" x2="-1.27" y2="-0.635" width="0.254" layer="94"/>
<wire x1="-1.27" y1="-0.635" x2="-1.27" y2="0.635" width="0.254" layer="94"/>
<pin name="1" x="5.08" y="0" visible="pad" length="middle" direction="pas" rot="R180"/>
<pin name="2" x="5.08" y="2.54" visible="pad" length="middle" direction="pas" rot="R180"/>
<pin name="3" x="5.08" y="5.08" visible="pad" length="middle" direction="pas" rot="R180"/>
<text x="-1.27" y="-5.08" size="1.778" layer="96">&gt;VALUE</text>
<text x="-1.27" y="13.462" size="1.778" layer="95">&gt;NAME</text>
<pin name="4" x="5.08" y="7.62" visible="pad" length="middle" direction="pas" rot="R180"/>
<pin name="5" x="5.08" y="10.16" visible="pad" length="middle" direction="pas" rot="R180"/>
<wire x1="-0.635" y1="6.985" x2="-0.635" y2="8.255" width="0.254" layer="94" curve="-180" cap="flat"/>
<wire x1="-0.635" y1="8.255" x2="-0.635" y2="6.985" width="0.254" layer="94" curve="-180" cap="flat"/>
<wire x1="-0.635" y1="9.525" x2="-0.635" y2="10.795" width="0.254" layer="94" curve="-180" cap="flat"/>
<wire x1="-0.635" y1="10.795" x2="-0.635" y2="9.525" width="0.254" layer="94" curve="-180" cap="flat"/>
</symbol>
</symbols>
<devicesets>
<deviceset name="BAR-05" prefix="J">
<description>XBAR</description>
<gates>
<gate name="G$1" symbol="BAR05" x="0" y="2.54"/>
</gates>
<devices>
<device name="" package="0JBS05DMD01A">
<connects>
<connect gate="G$1" pin="1" pad="1"/>
<connect gate="G$1" pin="2" pad="2"/>
<connect gate="G$1" pin="3" pad="3"/>
<connect gate="G$1" pin="4" pad="4"/>
<connect gate="G$1" pin="5" pad="5"/>
</connects>
<technologies>
<technology name=""/>
</technologies>
</device>
</devices>
</deviceset>
</devicesets>
</library>
<library name="jmr">
<packages>
</packages>
<symbols>
<symbol name="GND">
<wire x1="-1.905" y1="0" x2="1.905" y2="0" width="0.254" layer="94"/>
<text x="-2.54" y="-2.159" size="1.6764" layer="94">&gt;VALUE</text>
<pin name="GND" x="0" y="2.54" visible="off" length="short" direction="sup" rot="R270"/>
</symbol>
</symbols>
<devicesets>
<deviceset name="GND">
<gates>
<gate name="GND" symbol="GND" x="0" y="0"/>
</gates>
<devices>
<device name="">
<technologies>
<technology name=""/>
</technologies>
</device>
</devices>
</deviceset>
</devicesets>
</library>
</libraries>
<attributes>
</attributes>
<variantdefs>
</variantdefs>
<classes>
<class number="0" name="default" width="0" drill="0">
</class>
</classes>
<parts>
<part name="J1" library="barettes" deviceset="BAR-05" device=""/>
<part name="J2" library="barettes" deviceset="BAR-05" device=""/>
<part name="U$1" library="jmr" deviceset="GND" device=""/>
</parts>
<sheets>
<sheet>
<plain>
</plain>
<instances>
<instance part="J1" gate="G$1" x="27.94" y="55.88"/>
<instance part="J2" gate="G$1" x="53.34" y="55.88" rot="MR0"/>
<instance part="U$1" gate="GND" x="40.64" y="68.58" rot="R180"/>
</instances>
<busses>
</busses>
<nets>
<net name="N$2" class="0">
<segment>
<pinref part="J1" gate="G$1" pin="4"/>
<pinref part="J2" gate="G$1" pin="4"/>
<wire x1="33.02" y1="63.5" x2="48.26" y2="63.5" width="0.1524" layer="91"/>
</segment>
</net>
<net name="N$3" class="0">
<segment>
<pinref part="J1" gate="G$1" pin="3"/>
<pinref part="J2" gate="G$1" pin="3"/>
<wire x1="33.02" y1="60.96" x2="48.26" y2="60.96" width="0.1524" layer="91"/>
</segment>
</net>
<net name="N$4" class="0">
<segment>
<pinref part="J1" gate="G$1" pin="2"/>
<pinref part="J2" gate="G$1" pin="2"/>
<wire x1="33.02" y1="58.42" x2="48.26" y2="58.42" width="0.1524" layer="91"/>
</segment>
</net>
<net name="N$5" class="0">
<segment>
<pinref part="J1" gate="G$1" pin="1"/>
<pinref part="J2" gate="G$1" pin="1"/>
<wire x1="33.02" y1="55.88" x2="48.26" y2="55.88" width="0.1524" layer="91"/>
</segment>
</net>
<net name="GND" class="0">
<segment>
<pinref part="J1" gate="G$1" pin="5"/>
<pinref part="J2" gate="G$1" pin="5"/>
<wire x1="33.02" y1="66.04" x2="40.64" y2="66.04" width="0.1524" layer="91"/>
<pinref part="U$1" gate="GND" pin="GND"/>
<wire x1="40.64" y1="66.04" x2="48.26" y2="66.04" width="0.1524" layer="91"/>
<junction x="40.64" y="66.04"/>
</segment>
</net>
</nets>
</sheet>
</sheets>
</schematic>
</drawing>
</eagle>
